
=====================================================================
File            	: facebook 
Number of Vertex 	: 88234 
Number of Edges  	: 4039 
Sample Rate +     	: 0.000010 
---------------------------------------------------------------------
File Successfully opened a. 
check row pt 434
Number of Degree 2354 
Number of triple A 8764760 
Number of triple 8764760 
Number of Sample 87 
total triple by check connection 169 
Update Number of Sample 169 
File Successfully opened a. 
---------------------------------------------------------------------
Number of Triangle 12 
nilainya 207449.937500Transitivity Estimation : 0.071006 
 Triangle Estimation : 207449 
---------------------------------------------------------------------
Time Execution: 0.020000 
=====================================================================
