
=====================================================================
File            	: skitter 
Number of Vertex 	: 1696415 
Number of Edges  	: 0 
Sample Rate +     	: 0.000001 
---------------------------------------------------------------------
File Successfully opened a. 
check row pt 0
Number of Degree 0 
Number of triple A 0 
Number of triple 0 
Number of Sample 0 
total triple by check connection 0 
Update Number of Sample 0 
File Successfully opened a. 
 Ini lah ntsample 0 
 Ini lah ntall 0 
 Ini lah tCount 0 
---------------------------------------------------------------------
Number of Triangle 0 
Number of Triangle 0 
nilainya -nanTransitivity Estimation : -nan 
 Triangle Estimation : 2147483648 
---------------------------------------------------------------------
Time Execution: 0.490000 
=====================================================================
