
=====================================================================
File            	: orkut 
Number of Vertex 	: 3072441 
Number of Edges  	: 117184899 
Sample Rate +     	: 0.000001 
---------------------------------------------------------------------
File Successfully opened a. 
check row pt 231143
Number of Degree 83873 
Number of triple A 380795590991 
Number of triple 380795590991 
Number of Sample 380795 
total triple by check connection 381141 
Update Number of Sample 381141 
File Successfully opened a. 
---------------------------------------------------------------------
Number of Triangle 12258 
nilainya 4082297088.000000Transitivity Estimation : 0.032161 
 Triangle Estimation : 2147483648 
---------------------------------------------------------------------
Time Execution: 97893.540000 
=====================================================================
