
=====================================================================
File            	: skitter 
Number of Vertex 	: 1696415 
Number of Edges  	: 11095298 
Sample Rate +     	: 0.000010 
---------------------------------------------------------------------
File Successfully opened a. 
check row pt 633
Number of Degree 22190596 
Number of triple A 16021662115 
Number of triple 16021662115 
Number of Sample 160216 
total triple by check connection 161277 
Update Number of Sample 161277 
File Successfully opened a. 
---------------------------------------------------------------------
Number of Triangle 837 
nilainya 27716560.000000Transitivity Estimation : 0.005190 
 Triangle Estimation : 27716560 
---------------------------------------------------------------------
Time Execution: 4505.740000 
=====================================================================
